{
    "created_time": "2020-05-30T23:33:22Z",
    "files": [
        {
            "attachment_folder": "",
            "attachments": [
            ],
            "created_time": "2020-05-30T23:33:25Z",
            "modified_time": "2020-06-24T18:00:33Z",
            "name": "todo.md",
            "tags": [
            ]
        }
    ],
    "sub_directories": [
    ],
    "version": "1"
}
