{
    "attachment_folder": "_v_attachments",
    "created_time": "2020-05-18T19:00:42Z",
    "files": [
    ],
    "image_folder": "",
    "recycle_bin_folder": "_v_recycle_bin",
    "sub_directories": [
        {
            "name": "Basics"
        }
    ],
    "tags": [
    ],
    "version": "1"
}
